{
  "allowSearch" : true,
  "businessKey" : [ "sku", "attribute1", "attribute4", "attribute3", "attribute6" ],
  "label" : "RawMaterialPrice",
  "numberOfAttributes" : 20,
  "userGroupEdit" : "administrators,bynfo,ruukki,data-editors",
  "userGroupViewDetails" : "ruukki"
}