{
  "hideWarnings": false,
  "isPlasma": false,
  "label": "Start target and floor modifiers for products at base product level",
  "status": "ACTIVE",
  "type": "MATRIX",
  "uniqueName": "StartTargetFloor_MainProductGroups",
  "userGroupEdit": "data-editors",
  "userGroupViewDetails": "data-viewers",
  "validAfter": "2019-11-12",
  "valueType": "MATRIX6"
}