{
  "calculationConfig": {
    "feederInputParams": [],
    "inputParams": [],
    "mappingParams": [],
    "outputElements": []
  },
  "continuous": false,
  "distributed": false,
  "incremental": false,
  "isDefault": true,
  "isPlasma": false,
  "label": "Product",
  "targetName": "DMDS.Product",
  "type": "TRUNCATE",
  "valid": true,
  "withTargetSnapshot": false
}