{
  "auxiliary": false,
  "deployed": true,
  "fields": [
    "customerId",
    "isParent",
    "name",
    "parentId"
  ],
  "isPlasma": false,
  "label": "Customer",
  "locked": false,
  "persistedObjectClass": "net.pricefx.domain.Customer",
  "queryable": true,
  "reload": false,
  "sourceLabel": "Customer",
  "sourceTypeCode": "C",
  "type": "DATASOURCE",
  "uniqueName": "Customer",
  "valid": true,
  "view": false
}