{
  "cssProperties" : "",
  "description" : "",
  "fieldType" : 1,
  "formatType" : "NUMERIC_LONG",
  "label" : "SteelCost",
  "labelTranslations" : {
    "" : "Steel Cost"
  },
  "readOnly" : false,
  "requiredField" : false
}