{
  "cssProperties" : "",
  "description" : "",
  "entityRefTypeCode" : "",
  "fieldType" : 2,
  "formatType" : "TEXT",
  "label" : "ColorKey",
  "labelTranslations" : {
    "" : "Color Key"
  },
  "readOnly" : false,
  "requiredField" : false
}