{
  "cssProperties" : "",
  "description" : "",
  "entityRefTypeCode" : "",
  "fieldType" : 2,
  "formatType" : "TEXT",
  "label" : "MaterialName",
  "labelTranslations" : {
    "" : "Material Name"
  },
  "readOnly" : false,
  "requiredField" : false
}