{
  "elements" : [ {
    "allowOverride" : false,
    "combinationType" : "FUNCTION",
    "displayOptions" : 0,
    "elementGroups" : [ ],
    "elementLabel" : "Product Master",
    "elementName" : "ProductMaster",
    "elementTimeout" : 0,
    "excludeFromExport" : false,
    "hideOnNull" : false,
    "hideWarnings" : false,
    "overridden" : false,
    "protectedExpression" : false,
    "summarize" : false
  }, {
    "allowOverride" : false,
    "combinationType" : "FUNCTION",
    "displayOptions" : 16,
    "elementGroups" : [ ],
    "elementLabel" : "Panel",
    "elementName" : "Panel",
    "elementTimeout" : 0,
    "excludeFromExport" : false,
    "hideOnNull" : false,
    "hideWarnings" : false,
    "overridden" : false,
    "protectedExpression" : false,
    "summarize" : false
  }, {
    "allowOverride" : false,
    "combinationType" : "FUNCTION",
    "displayOptions" : 16,
    "elementGroups" : [ ],
    "elementLabel" : "LoadBearing",
    "elementName" : "Loadbearing",
    "elementTimeout" : 0,
    "excludeFromExport" : false,
    "hideOnNull" : false,
    "hideWarnings" : false,
    "overridden" : false,
    "protectedExpression" : false,
    "summarize" : false
  }, {
    "allowOverride" : false,
    "combinationType" : "FUNCTION",
    "displayOptions" : 16,
    "elementGroups" : [ ],
    "elementLabel" : "Profile",
    "elementName" : "Profile",
    "elementTimeout" : 0,
    "excludeFromExport" : false,
    "hideOnNull" : false,
    "hideWarnings" : false,
    "overridden" : false,
    "protectedExpression" : false,
    "summarize" : false
  }, {
    "allowOverride" : false,
    "combinationType" : "FUNCTION",
    "displayOptions" : 16,
    "elementGroups" : [ ],
    "elementLabel" : "Purlin",
    "elementName" : "Purlin",
    "elementTimeout" : 0,
    "excludeFromExport" : false,
    "hideOnNull" : false,
    "hideWarnings" : false,
    "overridden" : false,
    "protectedExpression" : false,
    "summarize" : false
  }, {
    "allowOverride" : false,
    "combinationType" : "FUNCTION",
    "displayOptions" : 16,
    "elementGroups" : [ ],
    "elementLabel" : "Design Profile",
    "elementName" : "DesignProfile",
    "elementTimeout" : 0,
    "excludeFromExport" : false,
    "hideOnNull" : false,
    "hideWarnings" : false,
    "overridden" : false,
    "protectedExpression" : false,
    "summarize" : false
  }, {
    "allowOverride" : false,
    "combinationType" : "FUNCTION",
    "displayOptions" : 16,
    "elementGroups" : [ ],
    "elementLabel" : "Flashing",
    "elementName" : "Flashing",
    "elementTimeout" : 0,
    "excludeFromExport" : false,
    "hideOnNull" : false,
    "hideWarnings" : false,
    "overridden" : false,
    "protectedExpression" : false,
    "summarize" : false
  }, {
    "allowOverride" : false,
    "combinationType" : "FUNCTION",
    "displayOptions" : 16,
    "elementGroups" : [ ],
    "elementLabel" : "JointPiece",
    "elementName" : "JointPiece",
    "elementTimeout" : 0,
    "excludeFromExport" : false,
    "hideOnNull" : false,
    "hideWarnings" : false,
    "overridden" : false,
    "protectedExpression" : false,
    "summarize" : false
  }, {
    "allowOverride" : false,
    "combinationType" : "FUNCTION",
    "displayOptions" : 16,
    "elementGroups" : [ ],
    "elementLabel" : "SupportStud",
    "elementName" : "SupportStud",
    "elementTimeout" : 0,
    "excludeFromExport" : false,
    "hideOnNull" : false,
    "hideWarnings" : false,
    "overridden" : false,
    "protectedExpression" : false,
    "summarize" : false
  }, {
    "allowOverride" : false,
    "combinationType" : "FUNCTION",
    "displayOptions" : 16,
    "elementGroups" : [ ],
    "elementLabel" : "Sheet",
    "elementName" : "Sheet",
    "elementTimeout" : 0,
    "excludeFromExport" : false,
    "hideOnNull" : false,
    "hideWarnings" : false,
    "overridden" : false,
    "protectedExpression" : false,
    "summarize" : false
  }, {
    "allowOverride" : false,
    "combinationType" : "FUNCTION",
    "displayOptions" : 16,
    "elementGroups" : [ ],
    "elementLabel" : "StartingFillet",
    "elementName" : "StartingFillet",
    "elementTimeout" : 0,
    "excludeFromExport" : false,
    "hideOnNull" : false,
    "hideWarnings" : false,
    "overridden" : false,
    "protectedExpression" : false,
    "summarize" : false
  }, {
    "allowOverride" : false,
    "combinationType" : "FUNCTION",
    "displayOptions" : 16,
    "elementGroups" : [ ],
    "elementLabel" : "Fastener",
    "elementName" : "Fastener",
    "elementTimeout" : 0,
    "excludeFromExport" : false,
    "hideOnNull" : false,
    "hideWarnings" : false,
    "overridden" : false,
    "protectedExpression" : false,
    "summarize" : false
  }, {
    "allowOverride" : false,
    "combinationType" : "FUNCTION",
    "displayOptions" : 16,
    "elementGroups" : [ ],
    "elementLabel" : "Other",
    "elementName" : "Other",
    "elementTimeout" : 0,
    "excludeFromExport" : false,
    "hideOnNull" : false,
    "hideWarnings" : false,
    "overridden" : false,
    "protectedExpression" : false,
    "summarize" : false
  }, {
    "allowOverride" : false,
    "combinationType" : "FUNCTION",
    "displayOptions" : 16,
    "elementGroups" : [ ],
    "elementLabel" : "Isolation",
    "elementName" : "Isolation",
    "elementTimeout" : 0,
    "excludeFromExport" : false,
    "hideOnNull" : false,
    "hideWarnings" : false,
    "overridden" : false,
    "protectedExpression" : false,
    "summarize" : false
  }, {
    "allowOverride" : false,
    "combinationType" : "FUNCTION",
    "displayOptions" : 16,
    "elementGroups" : [ ],
    "elementLabel" : "Sealing",
    "elementName" : "Sealing",
    "elementTimeout" : 0,
    "excludeFromExport" : false,
    "hideOnNull" : false,
    "hideWarnings" : false,
    "overridden" : false,
    "protectedExpression" : false,
    "summarize" : false
  }, {
    "allowOverride" : false,
    "combinationType" : "FUNCTION",
    "displayOptions" : 16,
    "elementGroups" : [ ],
    "elementLabel" : "FireWall",
    "elementName" : "FireWall",
    "elementTimeout" : 0,
    "excludeFromExport" : false,
    "hideOnNull" : false,
    "hideWarnings" : false,
    "overridden" : false,
    "protectedExpression" : false,
    "summarize" : false
  }, {
    "allowOverride" : false,
    "combinationType" : "FUNCTION",
    "displayOptions" : 16,
    "elementGroups" : [ ],
    "elementLabel" : "Lamella",
    "elementName" : "Lamella",
    "elementTimeout" : 0,
    "excludeFromExport" : false,
    "hideOnNull" : false,
    "hideWarnings" : false,
    "overridden" : false,
    "protectedExpression" : false,
    "summarize" : false
  }, {
    "allowOverride" : false,
    "combinationType" : "FUNCTION",
    "displayOptions" : 16,
    "elementGroups" : [ ],
    "elementLabel" : "Liberta",
    "elementName" : "Liberta",
    "elementTimeout" : 0,
    "excludeFromExport" : false,
    "hideOnNull" : false,
    "hideWarnings" : false,
    "overridden" : false,
    "protectedExpression" : false,
    "summarize" : false
  }, {
    "allowOverride" : false,
    "combinationType" : "FUNCTION",
    "displayOptions" : 16,
    "elementGroups" : [ ],
    "elementLabel" : "BespokeCladding",
    "elementName" : "BespokeCladding",
    "elementTimeout" : 0,
    "excludeFromExport" : false,
    "hideOnNull" : false,
    "hideWarnings" : false,
    "overridden" : false,
    "protectedExpression" : false,
    "summarize" : false
  }, {
    "allowOverride" : false,
    "combinationType" : "FUNCTION",
    "displayOptions" : 16,
    "elementGroups" : [ ],
    "elementLabel" : "Primo",
    "elementName" : "Primo",
    "elementTimeout" : 0,
    "excludeFromExport" : false,
    "hideOnNull" : false,
    "hideWarnings" : false,
    "overridden" : false,
    "protectedExpression" : false,
    "summarize" : false
  }, {
    "allowOverride" : false,
    "combinationType" : "FUNCTION",
    "displayOptions" : 16,
    "elementGroups" : [ ],
    "elementLabel" : "Panel Missing Markets",
    "elementName" : "PanelMarkets",
    "elementTimeout" : 0,
    "excludeFromExport" : false,
    "hideOnNull" : false,
    "hideWarnings" : false,
    "overridden" : false,
    "protectedExpression" : false,
    "summarize" : false
  }, {
    "allowOverride" : false,
    "combinationType" : "FUNCTION",
    "displayOptions" : 16,
    "elementGroups" : [ ],
    "elementLabel" : "LoadBearing Missing markets",
    "elementName" : "LoadBearingMarkets",
    "elementTimeout" : 0,
    "excludeFromExport" : false,
    "hideOnNull" : false,
    "hideWarnings" : false,
    "overridden" : false,
    "protectedExpression" : false,
    "summarize" : false
  }, {
    "allowOverride" : false,
    "combinationType" : "FUNCTION",
    "displayOptions" : 16,
    "elementGroups" : [ ],
    "elementLabel" : "Profile Missing Markets",
    "elementName" : "ProfileMarkets",
    "elementTimeout" : 0,
    "excludeFromExport" : false,
    "hideOnNull" : false,
    "hideWarnings" : false,
    "overridden" : false,
    "protectedExpression" : false,
    "summarize" : false
  }, {
    "allowOverride" : false,
    "combinationType" : "FUNCTION",
    "displayOptions" : 16,
    "elementGroups" : [ ],
    "elementLabel" : "Purlin Missing Markets",
    "elementName" : "PurlinMarkets",
    "elementTimeout" : 0,
    "excludeFromExport" : false,
    "hideOnNull" : false,
    "hideWarnings" : false,
    "overridden" : false,
    "protectedExpression" : false,
    "summarize" : false
  }, {
    "allowOverride" : false,
    "combinationType" : "FUNCTION",
    "displayOptions" : 16,
    "elementGroups" : [ ],
    "elementLabel" : "DesignProfile Misssing Markets",
    "elementName" : "DesignProfileMarkets",
    "elementTimeout" : 0,
    "excludeFromExport" : false,
    "hideOnNull" : false,
    "hideWarnings" : false,
    "overridden" : false,
    "protectedExpression" : false,
    "summarize" : false
  }, {
    "allowOverride" : false,
    "combinationType" : "FUNCTION",
    "displayOptions" : 16,
    "elementGroups" : [ ],
    "elementLabel" : "Flashing Missing Markets",
    "elementName" : "FlashingMarkets",
    "elementTimeout" : 0,
    "excludeFromExport" : false,
    "hideOnNull" : false,
    "hideWarnings" : false,
    "overridden" : false,
    "protectedExpression" : false,
    "summarize" : false
  }, {
    "allowOverride" : false,
    "combinationType" : "FUNCTION",
    "displayOptions" : 16,
    "elementGroups" : [ ],
    "elementLabel" : "JointPiece Missing Markets",
    "elementName" : "JointPieceMarkets",
    "elementTimeout" : 0,
    "excludeFromExport" : false,
    "hideOnNull" : false,
    "hideWarnings" : false,
    "overridden" : false,
    "protectedExpression" : false,
    "summarize" : false
  }, {
    "allowOverride" : false,
    "combinationType" : "FUNCTION",
    "displayOptions" : 16,
    "elementGroups" : [ ],
    "elementLabel" : "SupportStud Missing Markets",
    "elementName" : "SupportStudMarkets",
    "elementTimeout" : 0,
    "excludeFromExport" : false,
    "hideOnNull" : false,
    "hideWarnings" : false,
    "overridden" : false,
    "protectedExpression" : false,
    "summarize" : false
  }, {
    "allowOverride" : false,
    "combinationType" : "FUNCTION",
    "displayOptions" : 16,
    "elementGroups" : [ ],
    "elementLabel" : "Sheet Missing Markets",
    "elementName" : "SheetMarkets",
    "elementTimeout" : 0,
    "excludeFromExport" : false,
    "hideOnNull" : false,
    "hideWarnings" : false,
    "overridden" : false,
    "protectedExpression" : false,
    "summarize" : false
  }, {
    "allowOverride" : false,
    "combinationType" : "FUNCTION",
    "displayOptions" : 16,
    "elementGroups" : [ ],
    "elementLabel" : "StartingFillet Missing Markets",
    "elementName" : "StartingFilletmarkets",
    "elementTimeout" : 0,
    "excludeFromExport" : false,
    "hideOnNull" : false,
    "hideWarnings" : false,
    "overridden" : false,
    "protectedExpression" : false,
    "summarize" : false
  }, {
    "allowOverride" : false,
    "combinationType" : "FUNCTION",
    "displayOptions" : 16,
    "elementGroups" : [ ],
    "elementLabel" : "Fastener Missing Markets",
    "elementName" : "FastenerMarkets",
    "elementTimeout" : 0,
    "excludeFromExport" : false,
    "hideOnNull" : false,
    "hideWarnings" : false,
    "overridden" : false,
    "protectedExpression" : false,
    "summarize" : false
  }, {
    "allowOverride" : false,
    "combinationType" : "FUNCTION",
    "displayOptions" : 16,
    "elementGroups" : [ ],
    "elementLabel" : "Other Missing Markets",
    "elementName" : "OtherMarket",
    "elementTimeout" : 0,
    "excludeFromExport" : false,
    "hideOnNull" : false,
    "hideWarnings" : false,
    "overridden" : false,
    "protectedExpression" : false,
    "summarize" : false
  }, {
    "allowOverride" : false,
    "combinationType" : "FUNCTION",
    "displayOptions" : 16,
    "elementGroups" : [ ],
    "elementLabel" : "Isolation Missing Markets",
    "elementName" : "IsolationMarket",
    "elementTimeout" : 0,
    "excludeFromExport" : false,
    "hideOnNull" : false,
    "hideWarnings" : false,
    "overridden" : false,
    "protectedExpression" : false,
    "summarize" : false
  }, {
    "allowOverride" : false,
    "combinationType" : "FUNCTION",
    "displayOptions" : 16,
    "elementGroups" : [ ],
    "elementLabel" : "Sealing Missing Markets",
    "elementName" : "SealingMarket",
    "elementTimeout" : 0,
    "excludeFromExport" : false,
    "hideOnNull" : false,
    "hideWarnings" : false,
    "overridden" : false,
    "protectedExpression" : false,
    "summarize" : false
  }, {
    "allowOverride" : false,
    "combinationType" : "FUNCTION",
    "displayOptions" : 16,
    "elementGroups" : [ ],
    "elementLabel" : "Firewall Missing Markets",
    "elementName" : "FirewallMarket",
    "elementTimeout" : 0,
    "excludeFromExport" : false,
    "hideOnNull" : false,
    "hideWarnings" : false,
    "overridden" : false,
    "protectedExpression" : false,
    "summarize" : false
  }, {
    "allowOverride" : false,
    "combinationType" : "FUNCTION",
    "displayOptions" : 16,
    "elementGroups" : [ ],
    "elementLabel" : "Lamella Missing Markets",
    "elementName" : "LamellaMarket",
    "elementTimeout" : 0,
    "excludeFromExport" : false,
    "hideOnNull" : false,
    "hideWarnings" : false,
    "overridden" : false,
    "protectedExpression" : false,
    "summarize" : false
  }, {
    "allowOverride" : false,
    "combinationType" : "FUNCTION",
    "displayOptions" : 16,
    "elementGroups" : [ ],
    "elementLabel" : "Liberta Missing Markets",
    "elementName" : "LibertaMarket",
    "elementTimeout" : 0,
    "excludeFromExport" : false,
    "hideOnNull" : false,
    "hideWarnings" : false,
    "overridden" : false,
    "protectedExpression" : false,
    "summarize" : false
  }, {
    "allowOverride" : false,
    "combinationType" : "FUNCTION",
    "displayOptions" : 16,
    "elementGroups" : [ ],
    "elementLabel" : "Bespoke Cladding Missing Market",
    "elementName" : "BespokeCladdingMarket",
    "elementTimeout" : 0,
    "excludeFromExport" : false,
    "hideOnNull" : false,
    "hideWarnings" : false,
    "overridden" : false,
    "protectedExpression" : false,
    "summarize" : false
  }, {
    "allowOverride" : false,
    "combinationType" : "FUNCTION",
    "displayOptions" : 16,
    "elementGroups" : [ ],
    "elementLabel" : "Primo Missing Market",
    "elementName" : "PrimoMarket",
    "elementTimeout" : 0,
    "excludeFromExport" : false,
    "hideOnNull" : false,
    "hideWarnings" : false,
    "overridden" : false,
    "protectedExpression" : false,
    "summarize" : false
  }, {
    "allowOverride" : false,
    "combinationType" : "FUNCTION",
    "displayOptions" : 16,
    "elementGroups" : [ ],
    "elementLabel" : "Missing Products",
    "elementName" : "MissingProducts",
    "elementTimeout" : 0,
    "excludeFromExport" : false,
    "hideOnNull" : false,
    "hideWarnings" : false,
    "overridden" : false,
    "protectedExpression" : false,
    "summarize" : false
  }, {
    "allowOverride" : false,
    "combinationType" : "FUNCTION",
    "displayOptions" : 16,
    "elementGroups" : [ ],
    "elementLabel" : "Missing data by Market",
    "elementName" : "MarketSegregation",
    "elementTimeout" : 0,
    "excludeFromExport" : false,
    "hideOnNull" : false,
    "hideWarnings" : false,
    "overridden" : false,
    "protectedExpression" : false,
    "summarize" : false
  } ],
  "inputDescriptors" : [ ],
  "label" : "DB_MissingProducts",
  "status" : "ACTIVE",
  "uniqueName" : "DB_MissingProducts",
  "validAfter" : "2020-01-01"
}