{
  "cssProperties" : "",
  "fieldName" : "attribute2",
  "fieldType" : 1,
  "formatType" : "NUMERIC",
  "label" : "Start_vs_target",
  "labelTranslations" : {
    "" : "Start_vs_target"
  },
  "readOnly" : false,
  "requiredField" : false
}