{
  "allowSearch" : true,
  "businessKey" : [ "sku", "attribute2", "attribute3", "attribute5", "attribute7", "attribute9", "attribute11", "attribute13", "attribute15", "attribute17", "attribute18" ],
  "label" : "Components Available Options",
  "numberOfAttributes" : 30,
  "userGroupEdit" : "administrators,bynfo,data-editors,ruukki",
  "userGroupViewDetails" : "components-users,data-viewers,ruukki"
}