{
  "fieldName": "attribute2",
  "fieldType": 1,
  "formatType": "INTEGER",
  "label": "QuantityEnd",
  "labelTranslations": {
    "": "Quantity End"
  },
  "readOnly": false,
  "requiredField": false
}