{
  "cssProperties" : "",
  "fieldType" : 2,
  "formatType" : "TEXT",
  "label" : "ProductName",
  "labelTranslations" : {
    "" : "ProductName"
  },
  "readOnly" : false,
  "requiredField" : false
}