{
  "hideWarnings": false,
  "isPlasma": false,
  "status": "ACTIVE",
  "type": "MATRIX",
  "uniqueName": "Rates",
  "userGroupEdit": "data-editors",
  "userGroupViewDetails": "data-viewers",
  "validAfter": "2019-02-26",
  "valueType": "MATRIX2"
}