{
  "groups": [
    "data-editors"
  ],
  "label": "Users who can manage data and data tables",
  "roles": [
    "ADMIN_WO_USER_MGMT",
    "CM_CONTRACTMANAGER",
    "CM_CONTRACTS",
    "CM_CONTRACTS_ADMIN",
    "DASHBOARDADMIN",
    "DATAINTEGRATION",
    "DB_EXPORT",
    "HELPEDITOR",
    "I18NADMIN",
    "PA_DATAANALYZER",
    "PA_DATAMANAGER",
    "PA_FORMULAS",
    "PA_QUERY",
    "PA_SAVEDCHARTS_TREE",
    "PA_SCHEMAEDITOR",
    "PA_SIMULATION",
    "PB_BOM",
    "PB_CALCULATEDFIELDSETS",
    "PB_COMPETITION",
    "PB_CUSTOMERASSIGNMENT",
    "PB_CUSTOMEREDITOR",
    "PB_CUSTOMERS",
    "PB_CUSTOMERS_ONLY",
    "PB_CUSTOMERS_RO",
    "PB_CUSTOMER_HIERARCHY",
    "PB_CUSTOMER_HIERARCHY_RO",
    "PB_CXEDITOR",
    "PB_DATAEXPORTS",
    "PB_DATAIMPORTS",
    "PB_DCREQUESTER",
    "PB_GLOBAL_PREFERENCES",
    "PB_INVARIANTS",
    "PB_INVARIANTS_TESTUI",
    "PB_PARAMETERS",
    "PB_PARAMETERS_RO",
    "PB_PARAMETERS_TREE",
    "PB_PDETAILSEDITOR",
    "PB_PDETAILSVIEW",
    "PB_PRICEGRIDEDITOR",
    "PB_PRICEGRIDEDITOR_ADD_SKU",
    "PB_PRICEGRIDS",
    "PB_PRICEGRID_TREE",
    "PB_PRICELISTS",
    "PB_PRICELISTSEDITOR",
    "PB_PRICELISTS_RO",
    "PB_PRICELIST_TREE",
    "PB_PRICERECORDS",
    "PB_PRICERECORDS_RO",
    "PB_PRODUCTEDITOR",
    "PB_PRODUCTEDITOR_EC",
    "PB_PRODUCTS",
    "PB_PRODUCTS_ONLY",
    "PB_PRODUCTS_RO",
    "PB_PXEDITOR",
    "PB_PXREF",
    "PB_SIMULATION",
    "PRICESHOP",
    "PRICESHOP_QUOTEADMIN",
    "RM_RAT",
    "RM_REBATEAGREEMENTS",
    "RM_REBATEAGREEMENTS_ADMIN",
    "RM_REBATEMANAGER",
    "RM_REBATERECORDS",
    "RM_REBATERECORDS_ADMIN",
    "RM_REBATERECORDS_RO",
    "RM_REBATERECORD_APPROVAL",
    "TODOADMIN",
    "USERAUDIT",
    "USERGROUPOVERRIDE",
    "WF_ADMIN",
    "WF_BUILDER"
  ],
  "uniqueName": "superusers"
}