{
  "allowSearch" : true,
  "businessKey" : [ "sku", "attribute2", "attribute3", "attribute5", "attribute7" ],
  "label" : "Components Default Options",
  "numberOfAttributes" : 20,
  "userGroupEdit" : "administrators,bynfo,data-editors,ruukki",
  "userGroupViewDetails" : "components-users,data-viewers,ruukki"
}