{
  "description": "The key of the element to find a translation for, i.e the OptionKey, GroupKey or OptionGroupKey",
  "fieldName": "key1",
  "fieldType": 2,
  "label": "ElementKey",
  "readOnly": false,
  "requiredField": false
}