{
  "fieldName" : "attribute5",
  "fieldType" : 2,
  "fieldValueOptions" : "[\"NewStartPrice\",\"NewTargetPrice\",\"NewFloorPrice\",\"NewBasePrice\",\"CurrentStartPrice\",\"CurrentTargetPrice\",\"CurrentFloorPrice\",\"CurrentBasePrice\",\"null\"]",
  "formatType" : "TEXT",
  "label" : "expr05",
  "labelTranslations" : {
    "" : "Variable3"
  },
  "readOnly" : false,
  "requiredField" : false
}