{
  "aggregation": false,
  "auxiliary": false,
  "calculated": false,
  "deleted": false,
  "deployed": true,
  "dimension": false,
  "expression": "formulaName",
  "key": false,
  "label": "FormulaName",
  "numeric": false,
  "partitioningKey": false,
  "persisted": true,
  "queryable": true,
  "source": "DMDS.Product",
  "sourceField": "formulaName",
  "system": false,
  "time": false,
  "type": "TEXT",
  "visibility": 1
}