{
  "cssProperties" : "",
  "description" : "",
  "fieldType" : 1,
  "formatType" : "NUMERIC_LONG",
  "label" : "FactoryMarkup",
  "labelTranslations" : {
    "" : "Factory Markup"
  },
  "readOnly" : false,
  "requiredField" : false
}