{
  "cssProperties" : "",
  "fieldName" : "key2",
  "fieldType" : 2,
  "fieldValueOptions" : "[\"Green\",\"Red\",\"Orange\"]",
  "formatType" : "TEXT",
  "label" : "Color",
  "labelTranslations" : {
    "" : "Color"
  },
  "readOnly" : false,
  "requiredField" : true
}