{
  "fieldName": "attribute1",
  "fieldType": 1,
  "formatType": "NUMERIC",
  "label": "MarkupValue",
  "labelTranslations": {
    "": "MarkupValue"
  },
  "readOnly": false,
  "requiredField": false
}