{
  "hideWarnings": false,
  "isPlasma": false,
  "status": "ACTIVE",
  "type": "MATRIX",
  "uniqueName": "PM_QuantitySegments",
  "userGroupEdit": "data-editors",
  "validAfter": "2020-01-12",
  "valueType": "MATRIX3"
}