{
  "elements" : [ {
    "allowOverride" : false,
    "combinationType" : "FUNCTION",
    "displayOptions" : 0,
    "elementGroups" : [ ],
    "elementLabel" : "AbortOnSyntaxCheck",
    "elementName" : "AbortOnSyntaxCheck",
    "elementTimeout" : 0,
    "hideOnNull" : false,
    "hideWarnings" : false,
    "protectedExpression" : false,
    "summarize" : false
  }, {
    "allowOverride" : false,
    "combinationType" : "FUNCTION",
    "displayOptions" : 0,
    "elementGroups" : [ ],
    "elementLabel" : "RetainGlobal",
    "elementName" : "RetainGlobal",
    "elementTimeout" : 0,
    "hideOnNull" : false,
    "hideWarnings" : false,
    "protectedExpression" : false,
    "summarize" : false
  }, {
    "allowOverride" : false,
    "combinationType" : "FUNCTION",
    "displayOptions" : 0,
    "elementGroups" : [ ],
    "elementLabel" : "SKU",
    "elementName" : "sku",
    "elementTimeout" : 0,
    "hideOnNull" : false,
    "hideWarnings" : false,
    "protectedExpression" : false,
    "summarize" : false
  }, {
    "allowOverride" : false,
    "combinationType" : "FUNCTION",
    "displayOptions" : 0,
    "elementGroups" : [ ],
    "elementLabel" : "PriceRowInstance",
    "elementName" : "PriceRowInstance",
    "elementTimeout" : 0,
    "hideOnNull" : false,
    "hideWarnings" : false,
    "protectedExpression" : false,
    "summarize" : false
  }, {
    "allowOverride" : true,
    "combinationType" : "FUNCTION",
    "cssProperties" : "background-color:#FFFF93",
    "displayOptions" : 16,
    "elementGroups" : [ ],
    "elementLabel" : "✍ Valid From",
    "elementName" : "ValidFrom",
    "elementTimeout" : 0,
    "formatType" : "DATE",
    "hideOnNull" : false,
    "hideWarnings" : false,
    "protectedExpression" : false,
    "summarize" : false
  }, {
    "allowOverride" : true,
    "combinationType" : "FUNCTION",
    "cssProperties" : "background-color:#FFFF93",
    "displayOptions" : 16,
    "elementGroups" : [ ],
    "elementLabel" : "✍ Valid Until",
    "elementName" : "ValidUntil",
    "elementTimeout" : 0,
    "formatType" : "DATE",
    "hideOnNull" : false,
    "hideWarnings" : false,
    "protectedExpression" : false,
    "summarize" : false
  }, {
    "allowOverride" : false,
    "combinationType" : "FUNCTION",
    "displayOptions" : 16,
    "elementGroups" : [ ],
    "elementLabel" : "Market",
    "elementName" : "Market",
    "elementTimeout" : 0,
    "hideOnNull" : false,
    "hideWarnings" : false,
    "protectedExpression" : false,
    "summarize" : false
  }, {
    "allowOverride" : false,
    "combinationType" : "FUNCTION",
    "displayOptions" : 16,
    "elementGroups" : [ ],
    "elementLabel" : "Product Type",
    "elementName" : "ProductType",
    "elementTimeout" : 0,
    "hideOnNull" : false,
    "hideWarnings" : false,
    "protectedExpression" : false,
    "summarize" : false
  }, {
    "allowOverride" : false,
    "combinationType" : "FUNCTION",
    "displayOptions" : 16,
    "elementGroups" : [ ],
    "elementLabel" : "Product Category",
    "elementName" : "ProductCategory",
    "elementTimeout" : 0,
    "hideOnNull" : false,
    "hideWarnings" : false,
    "protectedExpression" : false,
    "summarize" : false
  }, {
    "allowOverride" : false,
    "combinationType" : "FUNCTION",
    "displayOptions" : 16,
    "elementGroups" : [ ],
    "elementLabel" : "Base Product",
    "elementName" : "BaseProduct",
    "elementTimeout" : 0,
    "hideOnNull" : false,
    "hideWarnings" : false,
    "protectedExpression" : false,
    "summarize" : false
  }, {
    "allowOverride" : false,
    "combinationType" : "FUNCTION",
    "displayOptions" : 16,
    "elementGroups" : [ ],
    "elementLabel" : "Product Code",
    "elementName" : "ProductCode",
    "elementTimeout" : 0,
    "hideOnNull" : false,
    "hideWarnings" : false,
    "protectedExpression" : false,
    "summarize" : false
  }, {
    "allowOverride" : false,
    "combinationType" : "FUNCTION",
    "displayOptions" : 16,
    "elementGroups" : [ ],
    "elementLabel" : "A1 Target Price",
    "elementName" : "A1TargetPrice",
    "elementTimeout" : 0,
    "formatType" : "MONEY_EUR",
    "hideOnNull" : false,
    "hideWarnings" : false,
    "protectedExpression" : false,
    "summarize" : false
  }, {
    "allowOverride" : false,
    "combinationType" : "FUNCTION",
    "displayOptions" : 16,
    "elementGroups" : [ ],
    "elementLabel" : "A8 Target Price",
    "elementName" : "A8TargetPrice",
    "elementTimeout" : 0,
    "formatType" : "MONEY_EUR",
    "hideOnNull" : false,
    "hideWarnings" : false,
    "protectedExpression" : false,
    "summarize" : false
  }, {
    "allowOverride" : false,
    "combinationType" : "FUNCTION",
    "displayOptions" : 16,
    "elementGroups" : [ ],
    "elementLabel" : "Cogs Price",
    "elementName" : "CogsPrice",
    "elementTimeout" : 0,
    "formatType" : "MONEY_EUR",
    "hideOnNull" : false,
    "hideWarnings" : false,
    "protectedExpression" : false,
    "summarize" : false
  }, {
    "allowOverride" : false,
    "combinationType" : "FUNCTION",
    "displayOptions" : 16,
    "elementGroups" : [ ],
    "elementLabel" : "Active Base Price",
    "elementName" : "ActiveBasePrice",
    "elementTimeout" : 0,
    "formatType" : "MONEY_EUR",
    "hideOnNull" : false,
    "hideWarnings" : false,
    "protectedExpression" : false,
    "summarize" : false
  }, {
    "allowOverride" : true,
    "combinationType" : "FUNCTION",
    "cssProperties" : "background-color:#FFFF93",
    "displayOptions" : 16,
    "elementGroups" : [ ],
    "elementLabel" : "✍ New Base Price",
    "elementName" : "NewBasePrice",
    "elementTimeout" : 0,
    "formatType" : "MONEY_EUR",
    "hideOnNull" : false,
    "hideWarnings" : false,
    "protectedExpression" : false,
    "summarize" : false
  }, {
    "allowOverride" : false,
    "combinationType" : "FUNCTION",
    "displayOptions" : 16,
    "elementGroups" : [ ],
    "elementLabel" : "Base Price Delta Δ",
    "elementName" : "BasePriceDelta",
    "elementTimeout" : 0,
    "formatType" : "MONEY_EUR",
    "hideOnNull" : false,
    "hideWarnings" : false,
    "protectedExpression" : false,
    "summarize" : false
  }, {
    "allowOverride" : false,
    "combinationType" : "FUNCTION",
    "displayOptions" : 16,
    "elementGroups" : [ ],
    "elementLabel" : "Base Price Delta Δ %",
    "elementName" : "BasePriceDeltaPercent",
    "elementTimeout" : 0,
    "formatType" : "PERCENT",
    "hideOnNull" : false,
    "hideWarnings" : false,
    "protectedExpression" : false,
    "summarize" : false
  }, {
    "allowOverride" : false,
    "combinationType" : "FUNCTION",
    "displayOptions" : 16,
    "elementGroups" : [ ],
    "elementLabel" : "Active Floor Price",
    "elementName" : "ActiveFloorPrice",
    "elementTimeout" : 0,
    "formatType" : "MONEY_EUR",
    "hideOnNull" : false,
    "hideWarnings" : false,
    "protectedExpression" : false,
    "summarize" : false
  }, {
    "allowOverride" : true,
    "combinationType" : "FUNCTION",
    "cssProperties" : "background-color:#FFFF93",
    "displayOptions" : 16,
    "elementGroups" : [ ],
    "elementLabel" : "✍ New Floor Price",
    "elementName" : "NewFloorPrice",
    "elementTimeout" : 0,
    "formatType" : "MONEY_EUR",
    "hideOnNull" : false,
    "hideWarnings" : false,
    "protectedExpression" : false,
    "summarize" : false
  }, {
    "allowOverride" : false,
    "combinationType" : "FUNCTION",
    "displayOptions" : 16,
    "elementGroups" : [ ],
    "elementLabel" : "Floor Price Delta Δ",
    "elementName" : "FloorPriceDelta",
    "elementTimeout" : 0,
    "formatType" : "MONEY_EUR",
    "hideOnNull" : false,
    "hideWarnings" : false,
    "protectedExpression" : false,
    "summarize" : false
  }, {
    "allowOverride" : false,
    "combinationType" : "FUNCTION",
    "displayOptions" : 16,
    "elementGroups" : [ ],
    "elementLabel" : "Floor Price Delta Δ %",
    "elementName" : "FloorPriceDeltaPercent",
    "elementTimeout" : 0,
    "formatType" : "PERCENT",
    "hideOnNull" : false,
    "hideWarnings" : false,
    "protectedExpression" : false,
    "summarize" : false
  }, {
    "allowOverride" : false,
    "combinationType" : "FUNCTION",
    "displayOptions" : 16,
    "elementGroups" : [ ],
    "elementLabel" : "Active Target Price",
    "elementName" : "ActiveTargetPrice",
    "elementTimeout" : 0,
    "formatType" : "MONEY_EUR",
    "hideOnNull" : false,
    "hideWarnings" : false,
    "protectedExpression" : false,
    "summarize" : false
  }, {
    "allowOverride" : true,
    "combinationType" : "FUNCTION",
    "cssProperties" : "background-color:#FFFF93",
    "displayOptions" : 16,
    "elementGroups" : [ ],
    "elementLabel" : "✍ New Target Price",
    "elementName" : "NewTargetPrice",
    "elementTimeout" : 0,
    "formatType" : "MONEY_EUR",
    "hideOnNull" : false,
    "hideWarnings" : false,
    "protectedExpression" : false,
    "summarize" : false
  }, {
    "allowOverride" : false,
    "combinationType" : "FUNCTION",
    "displayOptions" : 16,
    "elementGroups" : [ ],
    "elementLabel" : "Target Price Delta Δ",
    "elementName" : "TargetPriceDelta",
    "elementTimeout" : 0,
    "formatType" : "MONEY_EUR",
    "hideOnNull" : false,
    "hideWarnings" : false,
    "protectedExpression" : false,
    "summarize" : false
  }, {
    "allowOverride" : false,
    "combinationType" : "FUNCTION",
    "displayOptions" : 16,
    "elementGroups" : [ ],
    "elementLabel" : "Target Price Delta Δ %",
    "elementName" : "TargetPriceDeltaPercent",
    "elementTimeout" : 0,
    "formatType" : "PERCENT",
    "hideOnNull" : false,
    "hideWarnings" : false,
    "protectedExpression" : false,
    "summarize" : false
  }, {
    "allowOverride" : false,
    "combinationType" : "FUNCTION",
    "displayOptions" : 16,
    "elementGroups" : [ ],
    "elementLabel" : "Active Start Price",
    "elementName" : "ActiveStartPrice",
    "elementTimeout" : 0,
    "formatType" : "MONEY_EUR",
    "hideOnNull" : false,
    "hideWarnings" : false,
    "protectedExpression" : false,
    "summarize" : false
  }, {
    "allowOverride" : true,
    "combinationType" : "FUNCTION",
    "cssProperties" : "background-color:#FFFF93",
    "displayOptions" : 16,
    "elementGroups" : [ ],
    "elementLabel" : "✍ New Start Price",
    "elementName" : "NewStartPrice",
    "elementTimeout" : 0,
    "formatType" : "MONEY_EUR",
    "hideOnNull" : false,
    "hideWarnings" : false,
    "protectedExpression" : false,
    "summarize" : false
  }, {
    "allowOverride" : false,
    "combinationType" : "FUNCTION",
    "displayOptions" : 16,
    "elementGroups" : [ ],
    "elementLabel" : "Start Price Delta Δ",
    "elementName" : "StartPriceDelta",
    "elementTimeout" : 0,
    "formatType" : "MONEY_EUR",
    "hideOnNull" : false,
    "hideWarnings" : false,
    "protectedExpression" : false,
    "summarize" : false
  }, {
    "allowOverride" : false,
    "combinationType" : "FUNCTION",
    "displayOptions" : 16,
    "elementGroups" : [ ],
    "elementLabel" : "Start Price Delta Δ %",
    "elementName" : "StartPriceDeltaPercent",
    "elementTimeout" : 0,
    "formatType" : "PERCENT",
    "hideOnNull" : false,
    "hideWarnings" : false,
    "protectedExpression" : false,
    "summarize" : false
  }, {
    "allowOverride" : false,
    "combinationType" : "FUNCTION",
    "displayOptions" : 16,
    "elementGroups" : [ ],
    "elementLabel" : "Current Price",
    "elementName" : "CurrentPrice",
    "elementTimeout" : 0,
    "formatType" : "MONEY",
    "hideOnNull" : false,
    "hideWarnings" : false,
    "protectedExpression" : false,
    "summarize" : false
  }, {
    "allowOverride" : false,
    "combinationType" : "FUNCTION",
    "displayOptions" : 16,
    "elementGroups" : [ ],
    "elementLabel" : "Price Records",
    "elementName" : "PriceRecords",
    "elementTimeout" : 0,
    "formatType" : "COMPLEX",
    "hideOnNull" : false,
    "hideWarnings" : false,
    "protectedExpression" : false,
    "summarize" : false
  }, {
    "allowOverride" : false,
    "combinationType" : "FUNCTION",
    "displayOptions" : 16,
    "elementGroups" : [ ],
    "elementLabel" : "Price Change Over Time",
    "elementName" : "PriceChangeOverTimeChart",
    "elementTimeout" : 120,
    "formatType" : "COMPLEX",
    "hideOnNull" : false,
    "hideWarnings" : false,
    "protectedExpression" : false,
    "summarize" : false
  }, {
    "allowOverride" : false,
    "combinationType" : "FUNCTION",
    "displayOptions" : 16,
    "elementGroups" : [ ],
    "elementLabel" : "GaurdRail",
    "elementName" : "GuardRailValidation",
    "elementTimeout" : 0,
    "hideOnNull" : false,
    "hideWarnings" : false,
    "protectedExpression" : false,
    "summarize" : false
  }, {
    "allowOverride" : false,
    "combinationType" : "FUNCTION",
    "displayOptions" : 16,
    "elementGroups" : [ ],
    "elementLabel" : "Has Missing Prices?",
    "elementName" : "HasMissingPrices",
    "elementTimeout" : 0,
    "hideOnNull" : false,
    "hideWarnings" : false,
    "protectedExpression" : false,
    "summarize" : false
  }, {
    "allowOverride" : false,
    "combinationType" : "FUNCTION",
    "displayOptions" : 16,
    "elementGroups" : [ ],
    "elementLabel" : "Entry In",
    "elementName" : "EntryIn",
    "elementTimeout" : 0,
    "formatType" : "TEXT",
    "hideOnNull" : false,
    "hideWarnings" : false,
    "protectedExpression" : false,
    "summarize" : false
  }, {
    "allowOverride" : false,
    "combinationType" : "FUNCTION",
    "displayOptions" : 16,
    "elementGroups" : [ ],
    "elementLabel" : "Part-ID",
    "elementName" : "ProductId",
    "elementTimeout" : 0,
    "hideOnNull" : false,
    "hideWarnings" : false,
    "protectedExpression" : false,
    "summarize" : false
  }, {
    "allowOverride" : false,
    "combinationType" : "FUNCTION",
    "displayOptions" : 16,
    "elementGroups" : [ ],
    "elementLabel" : "Validation Messages",
    "elementName" : "ValidationMessages",
    "elementTimeout" : 0,
    "formatType" : "COMPLEX",
    "hideOnNull" : false,
    "hideWarnings" : false,
    "protectedExpression" : false,
    "summarize" : false
  } ],
  "inputDescriptors" : [ ],
  "label" : "Price Change Logic",
  "status" : "ACTIVE",
  "uniqueName" : "RukkiPriceGrid",
  "validAfter" : "2020-01-01"
}