{
  "allowSearch" : true,
  "businessKey" : [ "sku", "attribute7" ],
  "label" : "Cladding Processing Cost",
  "numberOfAttributes" : 30,
  "userGroupEdit" : "bynfo,ruukki,data-editors,administrators",
  "userGroupViewDetails" : "ruukki"
}