{
  "configuration" : {
    "allowFieldTypeChange" : false,
    "approvalMappings" : { },
    "approvalTriggerFields" : [ ],
    "defaultFormulaOverride" : "TransferPriceLPG",
    "elementNames" : [ "ThicknessCoating", "PriceMatrix", "Color", "ProductName", "Market" ],
    "hiddenDefaultFields" : [ "previousPrice", "previousPriceDate", "priceChangePct_ActivePrev", "priceChange_ActivePrev", "activePrice", "activePriceDate", "priceChange", "priceChangePct", "resultPrice", "manualResultPrice", "denialDate" ],
    "hiddenElementNames" : [ ],
    "inputs" : [ ],
    "matrixElementName" : "SecondaryKey",
    "matrixFormulaName" : "TransferPrice_Matrix",
    "productFilterMode" : "auto",
    "resultElementName" : "PriceMatrix",
    "shotgunModeEnabled" : false
  },
  "keepManualOverrides" : false,
  "label" : "TransferPrice",
  "priceGridType" : "MATRIX",
  "writeOnlyChangedItems" : false
}