{
  "areDefault": true,
  "areGlobal": true,
  "preferenceName": "default",
  "viewState": "({field:[{name:\"combinationType\",width:50},{name:\"elementName\"},{name:\"elementLabel\"},{name:\"translationEditor\",width:20},{name:\"formulaExpression\",visible:false},{name:\"displayOptions\"},{name:\"formatType\"},{name:\"elementSuffix\"},{name:\"elementGroups\",visible:false},{name:\"conditionElementName\"},{name:\"cssProperties\",visible:false},{name:\"resultGroup\",visible:false},{name:\"hideWarnings\",visible:false,autoFitWidth:true},{name:\"userGroup\",visible:false},{name:\"summarize\",visible:false,autoFitWidth:true},{name:\"hideOnNull\",visible:false,autoFitWidth:true},{name:\"allowOverride\",visible:false,autoFitWidth:true},{name:\"elementTimeout\"}]})"
}