{
  "cssProperties" : "",
  "fieldName" : "attribute1",
  "fieldType" : 1,
  "formatType" : "NUMERIC",
  "label" : "AreaInM2",
  "labelTranslations" : {
    "" : "Area in M2"
  },
  "readOnly" : false,
  "requiredField" : false
}