{
  "cssProperties" : "",
  "fieldName" : "key1",
  "fieldType" : 1,
  "formatType" : "NUMERIC",
  "label" : "Length(A)",
  "labelTranslations" : {
    "" : "Length(A)"
  },
  "readOnly" : false,
  "requiredField" : true
}