{
  "elements" : [ {
    "allowOverride" : false,
    "combinationType" : "FUNCTION",
    "displayOptions" : 0,
    "elementGroups" : [ ],
    "elementLabel" : "Available options",
    "elementName" : "getAvailable",
    "elementTimeout" : 60,
    "excludeFromExport" : false,
    "hideOnNull" : false,
    "hideWarnings" : false,
    "overridden" : false,
    "protectedExpression" : false,
    "summarize" : false
  }, {
    "allowOverride" : false,
    "combinationType" : "FUNCTION",
    "displayOptions" : 0,
    "elementGroups" : [ ],
    "elementLabel" : "Default options",
    "elementName" : "getDefaults",
    "elementTimeout" : 60,
    "excludeFromExport" : false,
    "hideOnNull" : false,
    "hideWarnings" : false,
    "overridden" : false,
    "protectedExpression" : false,
    "summarize" : false
  } ],
  "formulaNature" : "library",
  "inputDescriptors" : [ ],
  "label" : "implemented CHG007, deploy to prod",
  "status" : "ACTIVE",
  "uniqueName" : "options",
  "validAfter" : "2022-08-10"
}