{
  "aggregation": false,
  "auxiliary": false,
  "calculated": false,
  "deleted": false,
  "deployed": true,
  "dimension": true,
  "expression": "CcyTo",
  "key": true,
  "label": "CcyTo",
  "numeric": false,
  "partitioningKey": false,
  "persisted": true,
  "queryable": true,
  "system": false,
  "time": false,
  "type": "CURRENCY",
  "visibility": 1
}