{
  "aggregation": false,
  "auxiliary": false,
  "calculated": false,
  "deleted": false,
  "deployed": true,
  "dimension": false,
  "expression": "CcyValidTo",
  "key": false,
  "label": "CcyValidTo",
  "numeric": false,
  "partitioningKey": false,
  "persisted": true,
  "queryable": true,
  "system": false,
  "time": true,
  "type": "DATE",
  "visibility": 1
}