{
  "aggregation": false,
  "auxiliary": false,
  "calculated": false,
  "deleted": false,
  "deployed": true,
  "dimension": false,
  "expression": "CalYear",
  "key": false,
  "label": "Calendar Year",
  "numeric": false,
  "partitioningKey": false,
  "persisted": true,
  "queryable": true,
  "system": false,
  "time": false,
  "type": "TEXT",
  "visibility": 1
}