{
  "activated": true,
  "businessRoles": [
    "baseusers"
  ],
  "email": "pfx@bilot.fi",
  "firstLogin": false,
  "groups": [
    "bilot"
  ],
  "loginName": "ext-bilot",
  "noSession": false,
  "receiveAdminEmail": false,
  "requireTFA": false,
  "roles": [
    "DATAINTEGRATION"
  ],
  "ssoOnly": false,
  "workflowEmailingActivated": false
}