{
  "activated": true,
  "businessRoles": [
    "baseusers"
  ],
  "email": "none@mail.none",
  "firstLogin": false,
  "groups": [
    "data-editors"
  ],
  "loginName": "internal-automation",
  "noSession": true,
  "receiveAdminEmail": false,
  "requireTFA": false,
  "roles": [
    "DATAINTEGRATION",
    "PA_DATAANALYZER",
    "PA_DATAMANAGER",
    "PA_FORMULAS",
    "PA_QUERY",
    "PA_SAVEDCHARTS_TREE",
    "PA_SCHEMAEDITOR",
    "PA_SIMULATION",
    "PB_BOM",
    "PB_CALCULATEDFIELDSETS",
    "PB_COMPETITION",
    "PB_CUSTOMERASSIGNMENT",
    "PB_CUSTOMEREDITOR",
    "PB_CUSTOMERS",
    "PB_CUSTOMERS_RO",
    "PB_CUSTOMER_HIERARCHY",
    "PB_CUSTOMER_HIERARCHY_RO",
    "PB_CXEDITOR",
    "PB_DATAEXPORTS",
    "PB_DATAIMPORTS",
    "PB_DCREQUESTER",
    "PB_FORMULAS",
    "PB_GLOBAL_PREFERENCES",
    "PB_INVARIANTS",
    "PB_INVARIANTS_TESTUI",
    "PB_PARAMETERS",
    "PB_PARAMETERS_RO",
    "PB_PARAMETERS_TREE",
    "PB_PDETAILSEDITOR",
    "PB_PDETAILSVIEW",
    "PB_PRICEGRIDEDITOR",
    "PB_PRICEGRIDEDITOR_ADD_SKU",
    "PB_PRICEGRIDS",
    "PB_PRICEGRID_TREE",
    "PB_PRICELISTS",
    "PB_PRICELISTSEDITOR",
    "PB_PRICELISTS_RO",
    "PB_PRICELIST_TREE",
    "PB_PRICERECORDS",
    "PB_PRICERECORDS_RO",
    "PB_PRODUCTEDITOR",
    "PB_PRODUCTEDITOR_EC",
    "PB_PRODUCTS",
    "PB_PRODUCTS_RO",
    "PB_PXEDITOR",
    "PB_PXREF",
    "PB_SIMULATION",
    "WF_ADMIN",
    "WF_BUILDER"
  ],
  "ssoOnly": false,
  "workflowEmailingActivated": false
}