{
  "actionUUID": "TruncateTask-Vg4A8",
  "calculationConfig": {
    "feederInputParams": [],
    "inputParams": [],
    "mappingParams": [],
    "outputElements": []
  },
  "continuous": false,
  "distributed": false,
  "dtoFilter": {
    "_constructor": "AdvancedCriteria",
    "criteria": [
      {
        "fieldName": "formulaResult",
        "operator": "equals",
        "value": "OK"
      }
    ],
    "operator": "and"
  },
  "incLoadDate": "2020-11-25T00:02:01",
  "incremental": true,
  "isDefault": true,
  "isPlasma": false,
  "label": "Product",
  "targetName": "DMF.Product",
  "type": "TRUNCATE",
  "valid": true,
  "withTargetSnapshot": false
}