{
  "hideWarnings": false,
  "isPlasma": false,
  "label": "Start target and floor modifiers for accessories types",
  "status": "ACTIVE",
  "type": "MATRIX",
  "uniqueName": "StartTargetFloor_AccessoriesGroups",
  "userGroupEdit": "data-editors",
  "userGroupViewDetails": "automation,data-viewers",
  "validAfter": "2019-10-17",
  "valueType": "MATRIX5"
}