{
  "fieldType" : 1,
  "formatType" : "NUMERIC_LONG",
  "label" : "ExternalSheetPrice",
  "labelTranslations" : {
    "" : "External Sheet Price"
  },
  "readOnly" : false,
  "requiredField" : false
}