{
  "description" : "",
  "fieldType" : 1,
  "formatType" : "NUMERIC",
  "label" : "ProcCostFix",
  "labelTranslations" : {
    "" : "Proc. Cost fix"
  },
  "readOnly" : false,
  "requiredField" : false
}